\relax 
\providecommand\hyper@newdestlabel[2]{}
\providecommand{\transparent@use}[1]{}
\providecommand\HyperFirstAtBeginDocument{\AtBeginDocument}
\HyperFirstAtBeginDocument{\ifx\hyper@anchor\@undefined
\global\let\oldcontentsline\contentsline
\gdef\contentsline#1#2#3#4{\oldcontentsline{#1}{#2}{#3}}
\global\let\oldnewlabel\newlabel
\gdef\newlabel#1#2{\newlabelxx{#1}#2}
\gdef\newlabelxx#1#2#3#4#5#6{\oldnewlabel{#1}{{#2}{#3}}}
\AtEndDocument{\ifx\hyper@anchor\@undefined
\let\contentsline\oldcontentsline
\let\newlabel\oldnewlabel
\fi}
\fi}
\global\let\hyper@last\relax 
\gdef\HyperFirstAtBeginDocument#1{#1}
\providecommand\HyField@AuxAddToFields[1]{}
\providecommand\HyField@AuxAddToCoFields[2]{}
\babel@aux{italian}{}
\babel@aux{italian}{}
\@writefile{toc}{\contentsline {chapter}{Contenuti:}{1}{chapter*.1}}
\newlabel{index::doc}{{}{1}{\contentsname }{section*.2}{}}
\@writefile{toc}{\contentsline {chapter}{\numberline {1}Funzioni R-plr}{2}{chapter.1}}
\@writefile{lof}{\addvspace {10\p@ }}
\@writefile{lot}{\addvspace {10\p@ }}
\newlabel{funzioni_r:funzioni-r-plr}{{1}{2}{Funzioni R-plr}{chapter.1}{}}
\newlabel{funzioni_r::doc}{{1}{2}{Funzioni R-plr}{chapter.1}{}}
\@writefile{toc}{\contentsline {section}{\numberline {1.1}Installazione}{2}{section.1.1}}
\newlabel{funzioni_r:installazione}{{1.1}{2}{Installazione}{section.1.1}{}}
\@writefile{toc}{\contentsline {section}{\numberline {1.2}Definizioni}{2}{section.1.2}}
\newlabel{funzioni_r:definizioni}{{1.2}{2}{Definizioni}{section.1.2}{}}
\@writefile{toc}{\contentsline {section}{\numberline {1.3}Utilizzo}{3}{section.1.3}}
\newlabel{funzioni_r:utilizzo}{{1.3}{3}{Utilizzo}{section.1.3}{}}
\@writefile{toc}{\contentsline {chapter}{\numberline {2}Funzioni psql}{5}{chapter.2}}
\@writefile{lof}{\addvspace {10\p@ }}
\@writefile{lot}{\addvspace {10\p@ }}
\newlabel{funzioni_psql:funzioni-psql}{{2}{5}{Funzioni psql}{chapter.2}{}}
\newlabel{funzioni_psql::doc}{{2}{5}{Funzioni psql}{chapter.2}{}}
\@writefile{toc}{\contentsline {chapter}{\numberline {3}Tabelle}{6}{chapter.3}}
\@writefile{lof}{\addvspace {10\p@ }}
\@writefile{lot}{\addvspace {10\p@ }}
\newlabel{tabelle:tabelle}{{3}{6}{Tabelle}{chapter.3}{}}
\newlabel{tabelle::doc}{{3}{6}{Tabelle}{chapter.3}{}}
\@writefile{toc}{\contentsline {chapter}{\numberline {4}Viste}{8}{chapter.4}}
\@writefile{lof}{\addvspace {10\p@ }}
\@writefile{lot}{\addvspace {10\p@ }}
\newlabel{viste:viste}{{4}{8}{Viste}{chapter.4}{}}
\newlabel{viste::doc}{{4}{8}{Viste}{chapter.4}{}}
\@writefile{toc}{\contentsline {section}{\numberline {4.1}Foreign Data Wrappers}{8}{section.4.1}}
\newlabel{viste:foreign-data-wrappers}{{4.1}{8}{Foreign Data Wrappers}{section.4.1}{}}
\@writefile{toc}{\contentsline {section}{\numberline {4.2}Vista AARTN}{10}{section.4.2}}
\newlabel{viste:vista-aartn}{{4.2}{10}{Vista AARTN}{section.4.2}{}}
\@writefile{toc}{\contentsline {section}{\numberline {4.3}Viste riassuntive}{12}{section.4.3}}
\newlabel{viste:viste-riassuntive}{{4.3}{12}{Viste riassuntive}{section.4.3}{}}
\@writefile{toc}{\contentsline {section}{\numberline {4.4}Viste di supporto}{16}{section.4.4}}
\newlabel{viste:viste-di-supporto}{{4.4}{16}{Viste di supporto}{section.4.4}{}}
\@writefile{toc}{\contentsline {chapter}{\numberline {5}Integrazione con QGIS}{17}{chapter.5}}
\@writefile{lof}{\addvspace {10\p@ }}
\@writefile{lot}{\addvspace {10\p@ }}
\newlabel{integrazioni_qgis:integrazione-con-qgis}{{5}{17}{Integrazione con QGIS}{chapter.5}{}}
\newlabel{integrazioni_qgis::doc}{{5}{17}{Integrazione con QGIS}{chapter.5}{}}
